[
    {"nlpintentdetail": {"model": "Health01", "intent": "nlp001" }, "intentfulfillmentmodelgraphid": "intentffmodelgraph-Intent001"},
    {"nlpintentdetail": {"model": "Health01", "intent": "nlp001A" }, "intentfulfillmentmodelgraphid": "intentffmodelgraph-Intent001A"},
    {"nlpintentdetail": {"model": "Health01", "intent": "nlp002" }, "intentfulfillmentmodelgraphid": "intentffmodelgraph-Intent002"},
    {"nlpintentdetail": {"model": "Health01", "intent": "nlp003" }, "intentfulfillmentmodelgraphid": "intentffmodelgraph-Intent003"},
    {"nlpintentdetail": {"model": "Health01", "intent": "nlp004" }, "intentfulfillmentmodelgraphid": "intentffmodelgraph-Intent004"},
    {"nlpintentdetail": {"model": "Health01", "intent": "nlp005" }, "intentfulfillmentmodelgraphid": "intentffmodelgraph-Intent005"},
    {"nlpintentdetail": {"model": "FinanceBOT", "intent": "nlp006" }, "intentfulfillmentmodelgraphid": "intentffmodelgraph-Intent006"}
]