{
    "name": "Health",
    "modelgraphid": "domainmodelgraph-health",
    "nodes": [
        {
            "nodeid": "Health001",
            "label": "Policy",
            "nextnodes" : ["Health002"]
        },
        {
            "nodeid": "Health002",
            "label": "Claim",
            "nextnodes" : []
        }
    ],

    "nodeproperties": [
        {
            "nodeid": "Health001",
            "attributes":
            [
                {
                    "name": "ClientId",
                    "description":"Client Id",
                    "attrtype": "numeric"
                },
                {
                    "name": "PolicyId",
                    "description":"Policy Id",
                    "attrtype": "numeric"
                },
                {
                    "name": "BrokingRemuneration",
                    "description":"Broking Remuneration",
                    "attrtype": "numeric"
                },
                {
                    "name": "Region",
                    "description":"Geographic Region",
                    "attrtype": "string"
                }
            ]
        },
        {
            "nodeid": "Health002",
            "attributes":
            [
                {
                    "name": "ClaimId",
                    "description":"Claim Id",
                    "attrtype": "numeric"
                },
                {
                    "name": "PolicyId",
                    "description":"Policy Id",
                    "attrtype": "numeric"
                },
                {
                    "name": "ClaimAmount",
                    "description":"Claim Amount",
                    "attrtype": "numeric"
                },
                {
                    "name": "ClaimType",
                    "description":"Claim Type",
                    "attrtype": "string"
                },
                {
                    "name": "ClaimStatus",
                    "description":"Claim Status",
                    "attrtype": "string"
                }
            ]
        }
    ]
}