[
    {   
        "domainmodelgraphid": "domainmodelgraph-client",
        "nodeid": "Client001",
        "datasetid": "4096fc0c-b798-49b4-b650-f857b9dde400",
        "attributemapping": [
            {
                "nodeattr": "ClientId",
                "connectorattr": "clientid"
            },
            {
                "nodeattr": "ClientName",
                "connectorattr": "clientname"
            }
        ],
        "default": true
    },
    {
        "domainmodelgraphid": "domainmodelgraph-health",
        "nodeid": "Health001",
        "datasetid": "196a725f-f5e6-480d-adc7-1f44295714f5",
        "attributemapping": [
            {
                "nodeattr": "BrokingRemuneration",
                "connectorattr": "remuneration"
            },
            {
                "nodeattr": "ClientId",
                "connectorattr": "clientid"
            },
            {
                "nodeattr": "PolicyId",
                "connectorattr": "policy_id"
            },
            {
                "nodeattr": "Region",
                "connectorattr": "region"
            }
        ],
        "default": true
    },
    {
        "domainmodelgraphid": "domainmodelgraph-health",
        "nodeid": "Health001",
        "datasetid": "34e93591-74fe-4dfa-83a1-f07411b4c410",
        "attributemapping": [
            {
                "nodeattr": "BrokingRemuneration",
                "connectorattr": "bremuneration"
            },
            {
                "nodeattr": "ClientId",
                "connectorattr": "clientid"
            },
            {
                "nodeattr": "PolicyId",
                "connectorattr": "policy_id"
            },
            {
                "nodeattr": "Region",
                "connectorattr": "region"
            }
        ],
        "default": false
    },
    {
        "domainmodelgraphid": "domainmodelgraph-health",
        "nodeid": "Health002",
        "datasetid": "00ee3497-e66e-45ff-8b94-16fc847086db",
        "attributemapping": [
            { "nodeattr": "ClaimId", "connectorattr": "clientid"},
            { "nodeattr": "PolicyId", "connectorattr": "policy_id"},
            { "nodeattr": "ClaimAmount", "connectorattr": "claimamount"},
            { "nodeattr": "ClaimStatus", "connectorattr": "claimstatus"},
            { "nodeattr": "ClaimType", "connectorattr": "claimtype"}
        ],
        "default": true
    }
]